{
  "name": {"message": "Simple REST Client"},
  "description": {"message": "Construct custom HTTP requests to directly test your web services."},
  "request": {"message": "Request"},
  "debuglink": {"message": "Debug link"},
  "url": {"message": "URL:"},
  "method": {"message": "Method:"},
  "headers": {"message": "Headers:"},
  "data": {"message": "Data:"},
  "send": {"message": "Send"},
  "clear": {"message": "Clear"},
  "response": {"message": "Response"},
  "processing": {"message": "Processing"},
  "status": {"message": "Status:"},
  "bad_request": {"message": "Bad request"},
  "source": {"message": "<a href='http://github.com/jeremys/Simple-Rest-Client-Chrome-Extension'>Source code</a> licensed under the Apache License"},
  "icon": {"message": "icon by <a href='http://jasonrayner.deviantart.com/art/Internet-Icon-icns-and-png-130014831'>Jason Rayner</a>"}
}
